Dashboard
…
ny_noaa = 
  ny_noaa %>% 
  janitor::clean_names() %>% 
  # Pick 4 stations with few missing values
  filter(
    id %in% c('USC00300055', 'USC00301401', 'USC00303025')
  ) %>%  
  drop_na() %>% 
  mutate(tmax = as.double(tmax)/10,
         tmin = as.double(tmin)/10) %>% 
  rename(station_id = id)
  
ny_noaa

## # A tibble: 29,400 x 7
##    station_id  date        prcp  snow  snwd  tmax  tmin
##    <chr>       <date>     <int> <int> <int> <dbl> <dbl>
##  1 USC00300055 1981-01-01     0     0    76  -5   -12.8
##  2 USC00300055 1981-01-02    15    25    76  -3.9 -14.4
##  3 USC00300055 1981-01-03    15    25    76 -10   -17.8
##  4 USC00300055 1981-01-04    38    51   127 -12.8 -22.8
##  5 USC00300055 1981-01-05    71   102   203  -6.7 -15  
##  6 USC00300055 1981-01-06    25    25   203  -4.4 -10  
##  7 USC00300055 1981-01-07    20    25   229  -3.3 -13.3
##  8 USC00300055 1981-01-08    18    25   229 -10.6 -15.6
##  9 USC00300055 1981-01-09     0     0   229  -7.2 -12.2
## 10 USC00300055 1981-01-10    38    51   254  -8.3 -15  
## # ... with 29,390 more rows
…
